{
  "[json]": {
    "editor.defaultFormatter": "vscode.json-language-features"
  },
  "[markdown]": {
    "files.trimTrailingWhitespace": false
  },
  "[nix]": {
    "editor.defaultFormatter": "jnoortheen.nix-ide"
  },
  "[rust]": {
    "editor.defaultFormatter": "rust-lang.rust-analyzer"
  },
  "[sql]": {
    "editor.defaultFormatter": "mtxr.sqltools"
  },
  "[xml]": {
    "editor.defaultFormatter": "redhat.vscode-xml"
  },
  "breadcrumbs.showVariables": false,
  "cSpell.allowCompoundWords": true,
  "cSpell.diagnosticLevel": "Hint",
  "cSpell.maxDuplicateProblems": 1,
  "cSpell.maxNumberOfProblems": 25,
  "cSpell.spellCheckOnlyWorkspaceFiles": true,
  "cSpell.userWords": ["nocheck", "rubocop"],
  "dev.containers.defaultExtensionsIfInstalledLocally": [
    "GitHub.copilot",
    "GitHub.copilot-chat",
    "GitHub.vscode-pull-request-github",
    "Shopify.ruby-lsp",
    "KoichiSasada.vscode-rdbg"
  ],
  "diffEditor.renderSideBySide": true,
  "editor.acceptSuggestionOnEnter": "smart",
  "editor.autoIndent": "full",
  "editor.bracketPairColorization.enabled": true,
  "editor.codeActionsOnSave": {
    "source.fixAll.eslint": "explicit",
    "source.fixAll.markdownlint": "explicit"
  },
  "editor.defaultFormatter": "esbenp.prettier-vscode",
  "editor.detectIndentation": true,
  "editor.foldingImportsByDefault": true,
  "editor.fontFamily": "'PlemolJP35 Console NFJ','DejaVu Sans Mono'",
  "editor.fontLigatures": true,
  "editor.fontSize": 18,
  "editor.formatOnSave": true,
  "editor.formatOnType": true,
  "editor.inlineSuggest.enabled": true,
  "editor.linkedEditing": true,
  "editor.minimap.autohide": true,
  "editor.semanticHighlighting.enabled": true,
  "editor.suggestSelection": "first",
  "editor.tabCompletion": "onlySnippets",
  "editor.wordSeparators": "`~!@#$%^&*()-=+[{]}\\|;:'\",.<>/?、。「」【】『』（）！？　てにをはがのともへでや",
  "editor.wordWrap": "bounded",
  "editor.wordWrapColumn": 120,
  "explorer.confirmDelete": false,
  "explorer.confirmDragAndDrop": false,
  "extensions.autoUpdate": true,
  "extensions.ignoreRecommendations": true,
  "files.autoSave": "onFocusChange",
  "files.exclude": {
    "**/.git": true
  },
  "files.trimTrailingWhitespace": true,
  "files.watcherExclude": {
    "**/.ammonite": true,
    "**/.bloop": true,
    "**/.metals": true
  },
  "generic-input-methods.input-methods": [
    {
      "commandName": "text.math",
      "dictionary": ["defaults/math.json"],
      "languages": [],
      "name": "Unicode Math",
      "triggers": ["\\"]
    }
  ],
  "git.autofetch": true,
  "git.openRepositoryInParentFolders": "always",
  "github.copilot.editor.enableAutoCompletions": false,
  "gitlens.currentLine.enabled": false,
  "gitlens.hovers.avatars": false,
  "gitlens.hovers.currentLine.over": "line",
  "gitlens.hovers.enabled": false,
  "gitlens.plusFeatures.enabled": false,
  "gitlens.showWhatsNewAfterUpgrades": false,
  "javascript.preferGoToSourceDefinition": true,
  "javascript.updateImportsOnFileMove.enabled": "always",
  "javascript.validate.enable": false,
  "nix.enableLanguageServer": true,
  "redhat.telemetry.enabled": true,
  "rust-analyzer.check.command": "clippy",
  "rust-analyzer.checkOnSave": true,
  "security.workspace.trust.untrustedFiles": "open",
  "sqltools.useNodeRuntime": true,
  "terminal.integrated.defaultProfile.linux": "zsh",
  "terminal.integrated.minimumContrastRatio": 7,
  "textlint.autoFixOnSave": true,
  "textlint.configPath": "~/.textlintrc.json",
  "textlint.run": "onType",
  "typescript.preferGoToSourceDefinition": true,
  "typescript.updateImportsOnFileMove.enabled": "always",
  "vim.autoSwitchInputMethod.defaultIM": "1",
  "vim.autoSwitchInputMethod.enable": false,
  "vim.autoSwitchInputMethod.obtainIMCmd": "/usr/bin/fcitx5-remote",
  "vim.autoSwitchInputMethod.switchIMCmd": "/usr/bin/fcitx5-remote -t {im}",
  "vim.camelCaseMotion.enable": true,
  "vim.easymotion": true,
  "vim.enableNeovim": true,
  "vim.handleKeys": {
    "<C-b>": false,
    "<C-f>": false,
    "<C-h>": false,
    "<C-j>": false,
    "<C-l>": false,
    "<C-p>": false
  },
  "vim.highlightedyank.enable": true,
  "vim.hlsearch": true,
  "vim.incsearch": true,
  "vim.neovimPath": "/home/vega/.nix-profile/bin/nvim",
  "vim.normalModeKeyBindingsNonRecursive": [
    {
      "before": ["<space>"],
      "commands": ["vspacecode.space"]
    },
    {
      "before": [","],
      "commands": [
        "vspacecode.space",
        {
          "args": "m",
          "command": "whichkey.triggerKey"
        }
      ]
    }
  ],
  "vim.smartRelativeLine": true,
  "vim.sneak": true,
  "vim.sneakReplacesF": true,
  "vim.sneakUseIgnorecaseAndSmartcase": true,
  "vim.useCtrlKeys": true,
  "vim.useSystemClipboard": true,
  "vim.visualModeKeyBindingsNonRecursive": [
    {
      "before": ["+"],
      "commands": [
        {
          "command": "editor.action.smartSelect.expand"
        }
      ]
    },
    {
      "before": ["_"],
      "commands": [
        {
          "command": "editor.action.smartSelect.shrink"
        }
      ]
    },
    {
      "before": ["<space>"],
      "commands": ["vspacecode.space"]
    },
    {
      "before": [","],
      "commands": [
        "vspacecode.space",
        {
          "args": "m",
          "command": "whichkey.triggerKey"
        }
      ]
    }
  ],
  "window.autoDetectColorScheme": true,
  "window.confirmBeforeClose": "keyboardOnly",
  "window.dialogStyle": "custom",
  "window.doubleClickIconToClose": true,
  "window.menuBarVisibility": "compact",
  "window.newWindowDimensions": "offset",
  "window.openFilesInNewWindow": "off",
  "window.openFoldersInNewWindow": "on",
  "window.restoreWindows": "folders",
  "window.titleBarStyle": "custom",
  "workbench.editorAssociations": {
    "git-rebase-todo": "gitlens.rebase"
  },
  "workbench.panel.defaultLocation": "bottom",
  "workbench.preferredDarkColorTheme": "Default High Contrast",
  "workbench.preferredLightColorTheme": "Solarized Light",
  "workbench.startupEditor": "none"
}
